…
      $`Inputs - Surv Dists`
      # A tibble: 4 × 2
        name       value                                                      
        <chr>      <chr>                                                      
      1 pfs_chemo  "define_survival(dist = \"weibull\", pfs_shape, pfs_scale)"
      2 os_chemo   "define_survival(dist = \"weibull\", os_shape, os_scale)"  
      3 pfs_target "apply_hr(pfs_chemo, pfs_hr_target)"                       
      4 os_target  "apply_hr(os_chemo, os_hr_target)"                         
      
      $`Calc - Params`
      # A tibble: 480 × 31
         strategy group        state_time cycle model_time cycle_length_days
         <chr>    <chr>             <dbl> <dbl>      <dbl>             <dbl>
       1 CHEMO    All Patients          1     1          1              30.4
       2 CHEMO    All Patients          1     2          2              30.4
       3 CHEMO    All Patients          1     3          3              30.4
       4 CHEMO    All Patients          1     4          4              30.4
       5 CHEMO    All Patients          1     5          5              30.4
       6 CHEMO    All Patients          1     6          6              30.4
       7 CHEMO    All Patients          1     7          7              30.4
       8 CHEMO    All Patients          1     8          8              30.4
       9 CHEMO    All Patients          1     9          9              30.4
      10 CHEMO    All Patients          1    10         10              30.4
      # ℹ 470 more rows
      # ℹ 25 more variables: cycle_length_weeks <dbl>, cycle_length_months <dbl>,
      #   cycle_length_years <dbl>, model_day <dbl>, model_week <dbl>,
      #   model_month <dbl>, model_year <dbl>, state_day <dbl>, state_week <dbl>,
      #   state_month <dbl>, state_year <dbl>, disc_h <dbl>, disc_e <dbl>,
      #   pfs_shape <dbl>, pfs_scale <dbl>, pfs_hr_target <dbl>, os_shape <dbl>,
      #   os_scale <dbl>, os_hr_target <dbl>, chemo_cost <dbl>, target_cost <dbl>, …
      
      $`Calc - Trans`
      # A tibble: 482 × 5
         strategy group        cycle   pfs    os
         <chr>    <chr>        <dbl> <dbl> <dbl>
       1 CHEMO    All Patients     0 1     1    
       2 CHEMO    All Patients     1 0.988 0.991
       3 CHEMO    All Patients     2 0.973 0.980
       4 CHEMO    All Patients     3 0.957 0.969
       5 CHEMO    All Patients     4 0.939 0.958
       6 CHEMO    All Patients     5 0.922 0.947
       7 CHEMO    All Patients     6 0.903 0.936
       8 CHEMO    All Patients     7 0.885 0.924
       9 CHEMO    All Patients     8 0.866 0.913
      10 CHEMO    All Patients     9 0.847 0.901
      # ℹ 472 more rows
      
      $`Calc - Unit Values`
      # A tibble: 1,440 × 24
         strategy group cycle state pf_ly pp_ly pf_qalys pp_qalys   lys qalys med_cost
         <chr>    <chr> <dbl> <chr> <dbl> <dbl>    <dbl>    <dbl> <dbl> <dbl>    <dbl>
       1 CHEMO    All …     1 DEAD      0     0        0        0     0     0        0
       2 CHEMO    All …     2 DEAD      0     0        0        0     0     0        0
       3 CHEMO    All …     3 DEAD      0     0        0        0     0     0        0
       4 CHEMO    All …     4 DEAD      0     0        0        0     0     0        0
       5 CHEMO    All …     5 DEAD      0     0        0        0     0     0        0
       6 CHEMO    All …     6 DEAD      0     0        0        0     0     0        0
       7 CHEMO    All …     7 DEAD      0     0        0        0     0     0        0
       8 CHEMO    All …     8 DEAD      0     0        0        0     0     0        0
       9 CHEMO    All …     9 DEAD      0     0        0        0     0     0        0
      10 CHEMO    All …    10 DEAD      0     0        0        0     0     0        0
      # ℹ 1,430 more rows
      # ℹ 13 more variables: pf_care_cost <dbl>, pp_care_cost <dbl>, cost_hc <dbl>,
      #   .disc_pf_ly <dbl>, .disc_pp_ly <dbl>, .disc_pf_qalys <dbl>,
      #   .disc_pp_qalys <dbl>, .disc_lys <dbl>, .disc_qalys <dbl>,
      #   .disc_med_cost <dbl>, .disc_pf_care_cost <dbl>, .disc_pp_care_cost <dbl>,
      #   .disc_cost_hc <dbl>
      
      $`Calc - Values`
      # A tibble: 480 × 23
         strategy group  cycle  pf_ly   pp_ly pf_qalys pp_qalys    lys  qalys med_cost
         <chr>    <chr>  <dbl>  <dbl>   <dbl>    <dbl>    <dbl>  <dbl>  <dbl>    <dbl>
       1 CHEMO    All P…     1 0.0828 1.06e-4   0.0679  7.19e-5 0.0829 0.0680    1988.
       2 CHEMO    All P…     2 0.0817 4.04e-4   0.0670  2.75e-4 0.0821 0.0673    1961.
       3 CHEMO    All P…     3 0.0804 8.27e-4   0.0659  5.63e-4 0.0812 0.0665    1930.
       4 CHEMO    All P…     4 0.0790 1.32e-3   0.0648  8.94e-4 0.0803 0.0657    1896.
       5 CHEMO    All P…     5 0.0775 1.85e-3   0.0636  1.25e-3 0.0794 0.0648    1861.
       6 CHEMO    All P…     6 0.0760 2.40e-3   0.0623  1.63e-3 0.0784 0.0640    1825.
       7 CHEMO    All P…     7 0.0745 2.98e-3   0.0611  2.03e-3 0.0775 0.0631    1788.
       8 CHEMO    All P…     8 0.0730 3.57e-3   0.0598  2.43e-3 0.0765 0.0623    1751.
       9 CHEMO    All P…     9 0.0714 4.17e-3   0.0586  2.84e-3 0.0756 0.0614    1714.
      10 CHEMO    All P…    10 0.0698 4.77e-3   0.0573  3.25e-3 0.0746 0.0605    1676.
      # ℹ 470 more rows
      # ℹ 13 more variables: pf_care_cost <dbl>, pp_care_cost <dbl>, cost_hc <dbl>,
      #   .disc_pf_ly <dbl>, .disc_pp_ly <dbl>, .disc_pf_qalys <dbl>,
      #   .disc_pp_qalys <dbl>, .disc_lys <dbl>, .disc_qalys <dbl>,
      #   .disc_med_cost <dbl>, .disc_pf_care_cost <dbl>, .disc_pp_care_cost <dbl>,
      #   .disc_cost_hc <dbl>
      
      $`Results - Trace`
      # A tibble: 482 × 8
         model_day model_week model_month model_year series    PF      PP    DEAD
             <dbl>      <dbl>       <dbl>      <dbl> <chr>  <dbl>   <dbl>   <dbl>
       1       0         0           0        0      CHEMO  1     0       0      
       2      30.4       4.35        1        0.0833 CHEMO  0.988 0.00254 0.00924
       3      60.8       8.69        2        0.167  CHEMO  0.973 0.00715 0.0197 
       4      91.3      13.0         3        0.25   CHEMO  0.957 0.0127  0.0306 
       5     122.       17.4         4        0.333  CHEMO  0.939 0.0189  0.0418 
       6     152.       21.7         5.00     0.417  CHEMO  0.922 0.0254  0.0531 
       7     182.       26.1         6.00     0.500  CHEMO  0.903 0.0323  0.0645 
       8     213.       30.4         7.00     0.583  CHEMO  0.885 0.0393  0.0759 
       9     243.       34.8         8.00     0.667  CHEMO  0.866 0.0464  0.0874 
      10     274.       39.1         9.00     0.750  CHEMO  0.847 0.0537  0.0988 
      # ℹ 472 more rows
      
      $`Results - Trace (Corrected)`
      # A tibble: 480 × 8
         model_day model_week model_month model_year series    PF      PP    DEAD
             <dbl>      <dbl>       <dbl>      <dbl> <chr>  <dbl>   <dbl>   <dbl>
       1      30.4       4.35        1        0.0833 CHEMO  0.994 0.00127 0.00462
       2      60.8       8.69        2        0.167  CHEMO  0.981 0.00484 0.0145 
       3      91.3      13.0         3        0.25   CHEMO  0.965 0.00993 0.0252 
       4     122.       17.4         4        0.333  CHEMO  0.948 0.0158  0.0362 
       5     152.       21.7         5.00     0.417  CHEMO  0.930 0.0221  0.0474 
       6     182.       26.1         6.00     0.500  CHEMO  0.912 0.0288  0.0588 
       7     213.       30.4         7.00     0.583  CHEMO  0.894 0.0358  0.0702 
       8     243.       34.8         8.00     0.667  CHEMO  0.875 0.0429  0.0816 
       9     274.       39.1         9.00     0.750  CHEMO  0.857 0.0501  0.0931 
      10     304.       43.5        10        0.833  CHEMO  0.838 0.0573  0.105  
      # ℹ 470 more rows
      
      $`Results - Outcomes`
      # A tibble: 32 × 5
         outcome series           group    disc   value
         <chr>   <chr>            <chr>    <lgl>  <dbl>
       1 lys     CHEMO            pf_ly    TRUE   2.93 
       2 lys     TARGET           pf_ly    TRUE   3.97 
       3 lys     TARGET vs. CHEMO pf_ly    TRUE   1.04 
       4 lys     CHEMO vs. TARGET pf_ly    TRUE  -1.04 
       5 lys     CHEMO            pp_ly    TRUE   1.94 
       6 lys     TARGET           pp_ly    TRUE   2.06 
       7 lys     TARGET vs. CHEMO pp_ly    TRUE   0.125
       8 lys     CHEMO vs. TARGET pp_ly    TRUE  -0.125
       9 qalys   CHEMO            pf_qalys TRUE   2.40 
      10 qalys   TARGET           pf_qalys TRUE   3.25 
      # ℹ 22 more rows
      
      $`Results - Costs`
      # A tibble: 24 × 5
         outcome series           group        disc     value
         <chr>   <chr>            <chr>        <lgl>    <dbl>
       1 cost_hc CHEMO            med_cost     TRUE    70291.
       2 cost_hc TARGET           med_cost     TRUE   476060.
       3 cost_hc TARGET vs. CHEMO med_cost     TRUE   405769.
       4 cost_hc CHEMO vs. TARGET med_cost     TRUE  -405769.
       5 cost_hc CHEMO            pf_care_cost TRUE    35146.
       6 cost_hc TARGET           pf_care_cost TRUE    47606.
       7 cost_hc TARGET vs. CHEMO pf_care_cost TRUE    12460.
       8 cost_hc CHEMO vs. TARGET pf_care_cost TRUE   -12460.
       9 cost_hc CHEMO            pp_care_cost TRUE    46441.
      10 cost_hc TARGET           pp_care_cost TRUE    49448.
      # ℹ 14 more rows
…
      $`Inputs - Surv Dists`
      # A tibble: 4 × 2
        name       value                                                      
        <chr>      <chr>                                                      
      1 pfs_chemo  "define_survival(dist = \"weibull\", pfs_shape, pfs_scale)"
      2 os_chemo   "define_survival(dist = \"weibull\", os_shape, os_scale)"  
      3 pfs_target "apply_hr(pfs_chemo, pfs_hr_target)"                       
      4 os_target  "apply_hr(os_chemo, os_hr_target)"                         
      
      $`Calc - Params`
      # A tibble: 480 × 31
         strategy group        state_time cycle model_time cycle_length_days
         <chr>    <chr>             <dbl> <dbl>      <dbl>             <dbl>
       1 CHEMO    All Patients          1     1          1              30.4
       2 CHEMO    All Patients          1     2          2              30.4
       3 CHEMO    All Patients          1     3          3              30.4
       4 CHEMO    All Patients          1     4          4              30.4
       5 CHEMO    All Patients          1     5          5              30.4
       6 CHEMO    All Patients          1     6          6              30.4
       7 CHEMO    All Patients          1     7          7              30.4
       8 CHEMO    All Patients          1     8          8              30.4
       9 CHEMO    All Patients          1     9          9              30.4
      10 CHEMO    All Patients          1    10         10              30.4
      # ℹ 470 more rows
      # ℹ 25 more variables: cycle_length_weeks <dbl>, cycle_length_months <dbl>,
      #   cycle_length_years <dbl>, model_day <dbl>, model_week <dbl>,
      #   model_month <dbl>, model_year <dbl>, state_day <dbl>, state_week <dbl>,
      #   state_month <dbl>, state_year <dbl>, disc_h <dbl>, disc_e <dbl>,
      #   pfs_shape <dbl>, pfs_scale <dbl>, pfs_hr_target <dbl>, os_shape <dbl>,
      #   os_scale <dbl>, os_hr_target <dbl>, chemo_cost <dbl>, target_cost <dbl>, …
      
      $`Calc - Trans`
      # A tibble: 482 × 5
         strategy group        cycle   pfs    os
         <chr>    <chr>        <dbl> <dbl> <dbl>
       1 CHEMO    All Patients     0 1     1    
       2 CHEMO    All Patients     1 0.988 0.991
       3 CHEMO    All Patients     2 0.973 0.980
       4 CHEMO    All Patients     3 0.957 0.969
       5 CHEMO    All Patients     4 0.939 0.958
       6 CHEMO    All Patients     5 0.922 0.947
       7 CHEMO    All Patients     6 0.903 0.936
       8 CHEMO    All Patients     7 0.885 0.924
       9 CHEMO    All Patients     8 0.866 0.913
      10 CHEMO    All Patients     9 0.847 0.901
      # ℹ 472 more rows
      
      $`Calc - Unit Values`
      # A tibble: 1,440 × 24
         strategy group cycle state pf_ly pp_ly pf_qalys pp_qalys   lys qalys med_cost
         <chr>    <chr> <dbl> <chr> <dbl> <dbl>    <dbl>    <dbl> <dbl> <dbl>    <dbl>
       1 CHEMO    All …     1 DEAD      0     0        0        0     0     0        0
       2 CHEMO    All …     2 DEAD      0     0        0        0     0     0        0
       3 CHEMO    All …     3 DEAD      0     0        0        0     0     0        0
       4 CHEMO    All …     4 DEAD      0     0        0        0     0     0        0
       5 CHEMO    All …     5 DEAD      0     0        0        0     0     0        0
       6 CHEMO    All …     6 DEAD      0     0        0        0     0     0        0
       7 CHEMO    All …     7 DEAD      0     0        0        0     0     0        0
       8 CHEMO    All …     8 DEAD      0     0        0        0     0     0        0
       9 CHEMO    All …     9 DEAD      0     0        0        0     0     0        0
      10 CHEMO    All …    10 DEAD      0     0        0        0     0     0        0
      # ℹ 1,430 more rows
      # ℹ 13 more variables: pf_care_cost <dbl>, pp_care_cost <dbl>, cost_hc <dbl>,
      #   .disc_pf_ly <dbl>, .disc_pp_ly <dbl>, .disc_pf_qalys <dbl>,
      #   .disc_pp_qalys <dbl>, .disc_lys <dbl>, .disc_qalys <dbl>,
      #   .disc_med_cost <dbl>, .disc_pf_care_cost <dbl>, .disc_pp_care_cost <dbl>,
      #   .disc_cost_hc <dbl>
      
      $`Calc - Values`
      # A tibble: 480 × 23
         strategy group  cycle  pf_ly   pp_ly pf_qalys pp_qalys    lys  qalys med_cost
         <chr>    <chr>  <dbl>  <dbl>   <dbl>    <dbl>    <dbl>  <dbl>  <dbl>    <dbl>
       1 CHEMO    All P…     1 0.0828 1.06e-4   0.0679  7.19e-5 0.0829 0.0680    1988.
       2 CHEMO    All P…     2 0.0817 4.04e-4   0.0670  2.75e-4 0.0821 0.0673    1961.
       3 CHEMO    All P…     3 0.0804 8.27e-4   0.0659  5.63e-4 0.0812 0.0665    1930.
       4 CHEMO    All P…     4 0.0790 1.32e-3   0.0648  8.94e-4 0.0803 0.0657    1896.
       5 CHEMO    All P…     5 0.0775 1.85e-3   0.0636  1.25e-3 0.0794 0.0648    1861.
       6 CHEMO    All P…     6 0.0760 2.40e-3   0.0623  1.63e-3 0.0784 0.0640    1825.
       7 CHEMO    All P…     7 0.0745 2.98e-3   0.0611  2.03e-3 0.0775 0.0631    1788.
       8 CHEMO    All P…     8 0.0730 3.57e-3   0.0598  2.43e-3 0.0765 0.0623    1751.
       9 CHEMO    All P…     9 0.0714 4.17e-3   0.0586  2.84e-3 0.0756 0.0614    1714.
      10 CHEMO    All P…    10 0.0698 4.77e-3   0.0573  3.25e-3 0.0746 0.0605    1676.
      # ℹ 470 more rows
      # ℹ 13 more variables: pf_care_cost <dbl>, pp_care_cost <dbl>, cost_hc <dbl>,
      #   .disc_pf_ly <dbl>, .disc_pp_ly <dbl>, .disc_pf_qalys <dbl>,
      #   .disc_pp_qalys <dbl>, .disc_lys <dbl>, .disc_qalys <dbl>,
      #   .disc_med_cost <dbl>, .disc_pf_care_cost <dbl>, .disc_pp_care_cost <dbl>,
      #   .disc_cost_hc <dbl>
      
      $`Results - Trace`
      # A tibble: 482 × 8
         model_day model_week model_month model_year series    PF      PP    DEAD
             <dbl>      <dbl>       <dbl>      <dbl> <chr>  <dbl>   <dbl>   <dbl>
       1       0         0           0        0      CHEMO  1     0       0      
       2      30.4       4.35        1        0.0833 CHEMO  0.988 0.00254 0.00924
       3      60.8       8.69        2        0.167  CHEMO  0.973 0.00715 0.0197 
       4      91.3      13.0         3        0.25   CHEMO  0.957 0.0127  0.0306 
       5     122.       17.4         4        0.333  CHEMO  0.939 0.0189  0.0418 
       6     152.       21.7         5.00     0.417  CHEMO  0.922 0.0254  0.0531 
       7     182.       26.1         6.00     0.500  CHEMO  0.903 0.0323  0.0645 
       8     213.       30.4         7.00     0.583  CHEMO  0.885 0.0393  0.0759 
       9     243.       34.8         8.00     0.667  CHEMO  0.866 0.0464  0.0874 
      10     274.       39.1         9.00     0.750  CHEMO  0.847 0.0537  0.0988 
      # ℹ 472 more rows
      
      $`Results - Trace (Corrected)`
      # A tibble: 480 × 8
         model_day model_week model_month model_year series    PF      PP    DEAD
             <dbl>      <dbl>       <dbl>      <dbl> <chr>  <dbl>   <dbl>   <dbl>
       1      30.4       4.35        1        0.0833 CHEMO  0.994 0.00127 0.00462
       2      60.8       8.69        2        0.167  CHEMO  0.981 0.00484 0.0145 
       3      91.3      13.0         3        0.25   CHEMO  0.965 0.00993 0.0252 
       4     122.       17.4         4        0.333  CHEMO  0.948 0.0158  0.0362 
       5     152.       21.7         5.00     0.417  CHEMO  0.930 0.0221  0.0474 
       6     182.       26.1         6.00     0.500  CHEMO  0.912 0.0288  0.0588 
       7     213.       30.4         7.00     0.583  CHEMO  0.894 0.0358  0.0702 
       8     243.       34.8         8.00     0.667  CHEMO  0.875 0.0429  0.0816 
       9     274.       39.1         9.00     0.750  CHEMO  0.857 0.0501  0.0931 
      10     304.       43.5        10        0.833  CHEMO  0.838 0.0573  0.105  
      # ℹ 470 more rows
      
      $`Results - Outcomes`
      # A tibble: 32 × 5
         outcome series           group    disc   value
         <chr>   <chr>            <chr>    <lgl>  <dbl>
       1 lys     CHEMO            pf_ly    TRUE   2.93 
       2 lys     TARGET           pf_ly    TRUE   3.97 
       3 lys     TARGET vs. CHEMO pf_ly    TRUE   1.04 
       4 lys     CHEMO vs. TARGET pf_ly    TRUE  -1.04 
       5 lys     CHEMO            pp_ly    TRUE   1.94 
       6 lys     TARGET           pp_ly    TRUE   2.06 
       7 lys     TARGET vs. CHEMO pp_ly    TRUE   0.125
       8 lys     CHEMO vs. TARGET pp_ly    TRUE  -0.125
       9 qalys   CHEMO            pf_qalys TRUE   2.40 
      10 qalys   TARGET           pf_qalys TRUE   3.25 
      # ℹ 22 more rows
      
      $`Results - Costs`
      # A tibble: 24 × 5
         outcome series           group        disc     value
         <chr>   <chr>            <chr>        <lgl>    <dbl>
       1 cost_hc CHEMO            med_cost     TRUE    70291.
       2 cost_hc TARGET           med_cost     TRUE   476060.
       3 cost_hc TARGET vs. CHEMO med_cost     TRUE   405769.
       4 cost_hc CHEMO vs. TARGET med_cost     TRUE  -405769.
       5 cost_hc CHEMO            pf_care_cost TRUE    35146.
       6 cost_hc TARGET           pf_care_cost TRUE    47606.
       7 cost_hc TARGET vs. CHEMO pf_care_cost TRUE    12460.
       8 cost_hc CHEMO vs. TARGET pf_care_cost TRUE   -12460.
       9 cost_hc CHEMO            pp_care_cost TRUE    46441.
      10 cost_hc TARGET           pp_care_cost TRUE    49448.
      # ℹ 14 more rows
…
